,Population
1950,2528212050.0
1951,2575476643.0
1952,2621973062.0
1953,2668394403.0
1954,2715308233.0
1955,2763156489.0
1956,2812250699.0
1957,2862776676.0
1958,2914809266.0
1959,2968336132.0
1960,3023330011.0
1961,3079826075.0
1962,3137988796.0
1963,3198141416.0
1964,3260683516.0
1965,3325850779.0
1966,3393749500.0
1967,3464155737.0
1968,3536550532.0
1969,3610213646.0
1970,3684573906.0
1971,3759527113.0
1972,3835071874.0
1973,3910874301.0
1974,3986570002.0
1975,4061941200.0
1976,4136814060.9999995
1977,4211342381.0
1978,4286060667.9999995
1979,4361724178.0
1980,4438912080.0
1981,4517594968.0
1982,4597673946.0
1983,4679546172.999999
1984,4763680327.000001
1985,4850286314.999999
1986,4939632671.0
1987,5031291698.0
1988,5123908844.0
1989,5215649419.0
1990,5305178949.0
1991,5391992443.0
1992,5476392788.0
1993,5558855393.0
1994,5640208311.0
1995,5721085559.0
1996,5801595211.0
1997,5881593922.0
1998,5961194427.0
1999,6040488984.0
2000,6119584256.0
2001,6198545052.0
2002,6277509765.0
2003,6356736173.0
2004,6436530703.0
2005,6517111247.0
2006,6598569754.0
2007,6680858261.0
2008,6763869807.0
2009,6847423220.0
2010,6931357437.0
2011,7015607720.0
2012,7100124231.0
2013,7184763914.0
2014,7269361250.0
2015,7353759206.0
2016,7437878767.0
2017,7521613065.0
2018,7604745857.0
2019,7687027536.0
2020,7768267179.0
